
-
    request:
        method: GET
        url: 'http://api.e-verticals.test/api/leads?page=2&apikey=1234&canView=manager'
        headers:
            host: api.e-verticals.test
            user-agent: 'Guzzle/3.8.1 curl/7.22.0 PHP/5.5.9-1+sury.org~precise+1'
            content-length: 0
    response:
        status: 200
        headers:
            Date: 'Tue, 18 Mar 2014 13:31:17 GMT'
            Server: 'Apache/2.4.7 (Ubuntu)'
            X-Powered-By: PHP/5.5.9-1+sury.org~precise+1
            Cache-Control: no-cache
            Transfer-Encoding: chunked
            Content-Type: application/json
        body: |
            {
            "items":[
            {
            "event":{
            "date":"2014-10-15CEST00:00:00+0200",
            "type":{
            "type":1,
            "name":"BIRTHDAY"
            },
            "location":{
            "lat":10,
            "long":10,
            "admin_level1":"Parla",
            "admin_level2":"Madrid",
            "country":"Spain"
            }
            },
            "personal_info":{
            "name":"Pepe1",
            "surnames":"Potamo",
            "phone":"0132456789"
            },
            "showroom":{
            "id":2,
            "slug":"name",
            "score":1,
            "type":"2",
            "provider":{
            "id":"1",
            "name":"name",
            "slug":"name",
            "phone":"915555555"
            },
            "vertical":{
            "domain":"test.com"
            }
            },
            "information_bag":{
            "parameters":{
            "observations":"This is great"
            }
            },
            "created_at":"2014-03-17CET13:47:33+0100",
            "email":{
            "email":"emailtest@email.com"
            },
            "id":"11"
            },
            {
            "event":{
            "date":"2014-10-15CEST00:00:00+0200",
            "type":{
            "type":1,
            "name":"BIRTHDAY"
            },
            "location":{
            "lat":10,
            "long":10,
            "admin_level1":"Parla",
            "admin_level2":"Madrid",
            "country":"Spain"
            }
            },
            "personal_info":{
            "name":"Pepe1",
            "surnames":"Potamo",
            "phone":"0132456789"
            },
            "showroom":{
            "id":2,
            "slug":"name",
            "score":1,
            "type":"2",
            "provider":{
            "id":"1",
            "name":"name",
            "slug":"name",
            "phone":"915555555"
            },
            "vertical":{
            "domain":"test.com"
            }
            },
            "information_bag":{
            "parameters":{
            "observations":"This is great"
            }
            },
            "created_at":"2014-03-17CET13:47:25+0100",
            "email":{
            "email":"emailtest@email.com"
            },
            "id":"10"
            },
            {
            "event":{
            "date":"2014-10-15CEST00:00:00+0200",
            "type":{
            "type":1,
            "name":"BIRTHDAY"
            },
            "location":{
            "lat":10,
            "long":10,
            "admin_level1":"Parla",
            "admin_level2":"Madrid",
            "country":"Spain"
            }
            },
            "personal_info":{
            "name":"Pepe1",
            "surnames":"Potamo",
            "phone":"0132456789"
            },
            "showroom":{
            "id":2,
            "slug":"name",
            "score":1,
            "type":"2",
            "provider":{
            "id":"1",
            "name":"name",
            "slug":"name",
            "phone":"915555555"
            },
            "vertical":{
            "domain":"test.com"
            }
            },
            "information_bag":{
            "parameters":{
            "observations":"This is great"
            }
            },
            "created_at":"2014-03-17CET13:47:18+0100",
            "email":{
            "email":"emailtest@email.com"
            },
            "id":"9"
            },
            {
            "event":{
            "date":"2014-10-15CEST00:00:00+0200",
            "type":{
            "type":1,
            "name":"BIRTHDAY"
            },
            "location":{
            "lat":10,
            "long":10,
            "admin_level1":"Parla",
            "admin_level2":"Madrid",
            "country":"Spain"
            }
            },
            "personal_info":{
            "name":"Pepe1",
            "surnames":"Potamo",
            "phone":"0132456789"
            },
            "showroom":{
            "id":2,
            "slug":"name",
            "score":1,
            "type":"2",
            "provider":{
            "id":"1",
            "name":"name",
            "slug":"name",
            "phone":"915555555"
            },
            "vertical":{
            "domain":"test.com"
            }
            },
            "information_bag":{
            "parameters":{
            "observations":"This is great"
            }
            },
            "created_at":"2014-03-17CET13:47:10+0100",
            "email":{
            "email":"emailtest@email.com"
            },
            "id":"8"
            },
            {
            "event":{
            "date":"2014-10-15CEST00:00:00+0200",
            "type":{
            "type":1,
            "name":"BIRTHDAY"
            },
            "location":{
            "lat":10,
            "long":10,
            "admin_level1":"Parla",
            "admin_level2":"Madrid",
            "country":"Spain"
            }
            },
            "personal_info":{
            "name":"Pepe1",
            "surnames":"Potamo",
            "phone":"0132456789"
            },
            "showroom":{
            "id":2,
            "slug":"name",
            "score":1,
            "type":"2",
            "provider":{
            "id":"1",
            "name":"name",
            "slug":"name",
            "phone":"915555555"
            },
            "vertical":{
            "domain":"test.com"
            }
            },
            "information_bag":{
            "parameters":{
            "observations":"This is great"
            }
            },
            "created_at":"2014-03-17CET13:47:02+0100",
            "email":{
            "email":"emailtest@email.com"
            },
            "id":"7"
            },
            {
            "event":{
            "date":"2014-10-15CEST00:00:00+0200",
            "type":{
            "type":1,
            "name":"BIRTHDAY"
            },
            "location":{
            "lat":10,
            "long":10,
            "admin_level1":"Parla",
            "admin_level2":"Madrid",
            "country":"Spain"
            }
            },
            "personal_info":{
            "name":"Pepe1",
            "surnames":"Potamo",
            "phone":"0132456789"
            },
            "showroom":{
            "id":2,
            "slug":"name",
            "score":1,
            "type":"2",
            "provider":{
            "id":"1",
            "name":"name",
            "slug":"name",
            "phone":"915555555"
            },
            "vertical":{
            "domain":"test.com"
            }
            },
            "information_bag":{
            "parameters":{
            "observations":"This is great"
            }
            },
            "created_at":"2014-03-17CET13:46:56+0100",
            "email":{
            "email":"emailtest@email.com"
            },
            "id":"6"
            },
            {
            "event":{
            "date":"2014-10-15CEST00:00:00+0200",
            "type":{
            "type":1,
            "name":"BIRTHDAY"
            },
            "location":{
            "lat":10,
            "long":10,
            "admin_level1":"Parla",
            "admin_level2":"Madrid",
            "country":"Spain"
            }
            },
            "personal_info":{
            "name":"Pepe1",
            "surnames":"Potamo",
            "phone":"0132456789"
            },
            "showroom":{
            "id":2,
            "slug":"name",
            "score":1,
            "type":"2",
            "provider":{
            "id":"1",
            "name":"name",
            "slug":"name",
            "phone":"915555555"
            },
            "vertical":{
            "domain":"test.com"
            }
            },
            "information_bag":{
            "parameters":{
            "observations":"This is great"
            }
            },
            "created_at":"2014-03-17CET13:46:48+0100",
            "read_at":"2014-03-20CET12:16:10+0100",
            "email":{
            "email":"emailtest@email.com"
            },
            "id":"5"
            },
            {
            "event":{
            "date":"2014-10-15CEST00:00:00+0200",
            "type":{
            "type":1,
            "name":"BIRTHDAY"
            },
            "location":{
            "lat":10,
            "long":10,
            "admin_level1":"Parla",
            "admin_level2":"Madrid",
            "country":"Spain"
            }
            },
            "personal_info":{
            "name":"Pepe1",
            "surnames":"Potamo",
            "phone":"0132456789"
            },
            "showroom":{
            "id":2,
            "slug":"name",
            "score":1,
            "type":"2",
            "provider":{
            "id":"1",
            "name":"name",
            "slug":"name",
            "phone":"915555555"
            },
            "vertical":{
            "domain":"test.com"
            }
            },
            "information_bag":{
            "parameters":{
            "observations":"This is great"
            }
            },
            "created_at":"2014-03-17CET13:46:42+0100",
            "read_at":"2014-03-20CET12:26:02+0100",
            "email":{
            "email":"emailtest@email.com"
            },
            "id":"4"
            },
            {
            "event":{
            "date":"2014-10-15CEST00:00:00+0200",
            "type":{
            "type":1,
            "name":"BIRTHDAY"
            },
            "location":{
            "lat":10,
            "long":10,
            "admin_level1":"Parla",
            "admin_level2":"Madrid",
            "country":"Spain"
            }
            },
            "personal_info":{
            "name":"Pepe1",
            "surnames":"Potamo",
            "phone":"0132456789"
            },
            "showroom":{
            "id":2,
            "slug":"name",
            "score":1,
            "type":"2",
            "provider":{
            "id":"1",
            "name":"name",
            "slug":"name",
            "phone":"915555555"
            },
            "vertical":{
            "domain":"test.com"
            }
            },
            "information_bag":{
            "parameters":{
            "observations":"This is great"
            }
            },
            "created_at":"2014-03-17CET13:46:34+0100",
            "email":{
            "email":"emailtest@email.com"
            },
            "id":"3"
            },
            {
            "event":{
            "date":"2014-10-15CEST00:00:00+0200",
            "type":{
            "type":1,
            "name":"BIRTHDAY"
            },
            "location":{
            "lat":10,
            "long":10,
            "admin_level1":"Parla",
            "admin_level2":"Madrid",
            "country":"Spain"
            }
            },
            "personal_info":{
            "name":"Pepe1",
            "surnames":"Potamo",
            "phone":"0132456789"
            },
            "showroom":{
            "id":2,
            "slug":"name",
            "score":1,
            "type":"2",
            "provider":{
            "id":"1",
            "name":"name",
            "slug":"name",
            "phone":"915555555"
            },
            "vertical":{
            "domain":"test.com"
            }
            },
            "information_bag":{
            "parameters":{
            "observations":"This is great"
            }
            },
            "created_at":"2014-03-17CET13:46:27+0100",
            "email":{
            "email":"emailtest@email.com"
            },
            "id":"2"
            }
            ],
            "pagination":{
            "total_pages":2,
            "current_page":2,
            "items_per_page":10,
            "total_items":11

            }
            }
